Categoria,Temperatura,Humedad,Ruido
0,18.0,0.40,65
0,18.5,0.60,45
0,19.0,0.55,78
0,19.5,0.46,66
0,20.0,0.55,80
0,20.5,0.34,63
0,21.0,0.45,61
0,21.5,0.67,55
0,22.0,0.65,77
0,22.5,0.49,85
0,23.0,0.51,45
0,23.5,0.67,32
0,24.0,0.47,59
0,18.25,0.45,75
0,18.75,0.55,10
0,19.25,0.49,56
0,19.75,0.52,73
0,20.25,0.70,56
0,20.75,0.61,73
0,21.25,0.56,85
0,21.75,0.68,56
0,22.25,0.51,27
0,22.75,0.59,63
0,23.25,0.63,81
0,23.75,0.44,79
1,12.0,0.25,56
1,12.25,0.65,34
1,12.50,0.25,67
1,12.75,0.34,84
1,13.0,0.29,45
1,13.25,0.41,36
1,13.50,0.39,23
1,13.75,0.66,10
1,14.0,0.56,67
1,15.25,0.49,81
1,15.50,0.42,73
1,15.75,0.26,47
1,16.25,0.36,66
1,16.75,0.47,30
1,17.25,0.53,75
1,37.75,0.61,49
1,15.50,0.56,61
1,16.50,0.35,59
1,17.50,0.56,47
1,14.75,0.34,39
1,28.45,0.89,48
1,32.12,0.88,67
1,35.45,0.61,77
1,31.50,0.76,58
1,26.50,0.58,46
2,18.0,0.40,90
2,18.5,0.60,115
2,19.0,0.55,89
2,19.5,0.46,120
2,20.0,0.55,144
2,20.5,0.34,111
2,21.0,0.45,104
2,21.5,0.67,109
2,22.0,0.65,117
2,22.5,0.49,92
2,23.0,0.51,121
2,23.5,0.67,134
2,24.0,0.47,129
2,18.25,0.45,137
2,18.75,0.55,99
2,19.25,0.49,100
2,19.75,0.52,149
2,20.25,0.70,159
2,20.75,0.61,130
2,21.25,0.56,125
2,21.75,0.68,102
2,22.25,0.51,91
2,22.75,0.59,89
2,23.25,0.63,108
2,23.75,0.44,97
