+0 1:18.0 2:0.40 3:65
+0 1:18.5 2:0.60 3:45
+0 1:19.0 2:0.55 3:78
+0 1:19.5 2:0.46 3:66
+0 1:20.0 2:0.55 3:80
+0 1:20.5 2:0.34 3:63
+0 1:21.0 2:0.45 3:61
+0 1:21.5 2:0.67 3:55
+0 1:22.0 2:0.65 3:77
+0 1:22.5 2:0.49 3:85
+0 1:23.0 2:0.51 3:45
+0 1:23.5 2:0.67 3:32
+0 1:24.0 2:0.47 3:59
+0 1:18.25 2:0.45 3:75
+0 1:18.75 2:0.55 3:10
+0 1:19.25 2:0.49 3:56
+0 1:19.75 2:0.52 3:73
+0 1:20.25 2:0.70 3:56
+0 1:20.75 2:0.61 3:73
+0 1:21.25 2:0.56 3:85
+0 1:21.75 2:0.68 3:56
+0 1:22.25 2:0.51 3:27
+0 1:22.75 2:0.59 3:63
+0 1:23.25 2:0.63 3:81
+0 1:23.75 2:0.44 3:79
+1 1:12.0 2:0.25 3:56
+1 1:12.25 2:0.65 3:34
+1 1:12.50 2:0.25 3:67
+1 1:12.75 2:0.34 3:84
+1 1:13.0 2:0.29 3:45
+1 1:13.25 2:0.41 3:36
+1 1:13.50 2:0.39 3:23
+1 1:13.75 2:0.66 3:10
+1 1:14.0 2:0.56 3:67
+1 1:15.25 2:0.49 3:81
+1 1:15.50 2:0.42 3:73
+1 1:15.75 2:0.26 3:47
+1 1:16.25 2:0.36 3:66
+1 1:16.75 2:0.47 3:30
+1 1:17.25 2:0.53 3:75
+1 1:37.75 2:0.61 3:49
+1 1:15.50 2:0.56 3:61
+1 1:16.50 2:0.35 3:59
+1 1:17.50 2:0.56 3:47
+1 1:14.75 2:0.34 3:39
+1 1:28.45 2:0.89 3:48
+1 1:32.12 2:0.88 3:67
+1 1:35.45 2:0.61 3:77
+1 1:31.50 2:0.76 3:58
+1 1:26.50 2:0.58 3:46
+2 1:18.0 2:0.40 3:90
+2 1:18.5 2:0.60 3:115
+2 1:19.0 2:0.55 3:89
+2 1:19.5 2:0.46 3:120
+2 1:20.0 2:0.55 3:144
+2 1:20.5 2:0.34 3:111
+2 1:21.0 2:0.45 3:104
+2 1:21.5 2:0.67 3:109
+2 1:22.0 2:0.65 3:117
+2 1:22.5 2:0.49 3:92
+2 1:23.0 2:0.51 3:121
+2 1:23.5 2:0.67 3:134
+2 1:24.0 2:0.47 3:129
+2 1:18.25 2:0.45 3:137
+2 1:18.75 2:0.55 3:99
+2 1:19.25 2:0.49 3:100
+2 1:19.75 2:0.52 3:149
+2 1:20.25 2:0.70 3:159
+2 1:20.75 2:0.61 3:130
+2 1:21.25 2:0.56 3:125
+2 1:21.75 2:0.68 3:102
+2 1:22.25 2:0.51 3:91
+2 1:22.75 2:0.59 3:89
+2 1:23.25 2:0.63 3:108
+2 1:23.75 2:0.44 3:97
